\relax 
\babel@aux{english}{}
\@writefile{toc}{\contentsline {section}{\numberline {1}About}{1}\protected@file@percent }
\@writefile{toc}{\contentsline {section}{\numberline {2}Solution}{1}\protected@file@percent }
\@writefile{toc}{\contentsline {subsection}{\numberline {2.1}The game of Snake}{1}\protected@file@percent }
\@writefile{toc}{\contentsline {subsection}{\numberline {2.2}Snake and Snakes genome}{1}\protected@file@percent }
\@writefile{toc}{\contentsline {subsection}{\numberline {2.3}Genetic Algorithm}{2}\protected@file@percent }
\@writefile{toc}{\contentsline {subsubsection}{\numberline {2.3.1}Fitness}{2}\protected@file@percent }
\@writefile{toc}{\contentsline {subsubsection}{\numberline {2.3.2}Random population}{2}\protected@file@percent }
\@writefile{toc}{\contentsline {subsubsection}{\numberline {2.3.3}New Generation}{2}\protected@file@percent }
\@writefile{toc}{\contentsline {subsubsection}{\numberline {2.3.4}Selection}{2}\protected@file@percent }
\@writefile{toc}{\contentsline {subsubsection}{\numberline {2.3.5}Crossover}{2}\protected@file@percent }
\@writefile{toc}{\contentsline {subsubsection}{\numberline {2.3.6}Mutations}{3}\protected@file@percent }
